재무회계 목적의 가치평가 with R (Financial Accounting Valuation with R) - 3 금융 데이터 획득
…
먼저, 삼성전자 주식(005930.KS)과 같은 하나의 종목 심볼에 대한 일일 가격 데이터를 데이터 제공자 Yahoo!Finance에서 직접 다운로드하겠습니다. 데이터를 다운로드하기 위해 tq_get 명령어를 사용할 수 있습니다.

만약 tq_get 명령어 사용 방법을 모르는 경우, ?tq_get 명령어를 입력하여 도움말 파일을 확인하십시오. 특히 설명서의 예시 부분을 꼼꼼히 살펴보는 것을 추천합니다.

prices <- tq_get("005930.KS",
  get = "stock.prices",
  from = "2022-01-01",
  to = "2023-12-31"
)

prices

# A tibble: 489 × 8
   symbol    date        open  high   low close   volume adjusted
   <chr>     <date>     <dbl> <dbl> <dbl> <dbl>    <dbl>    <dbl>
 1 005930.KS 2022-01-04 78800 79200 78300 78700 12427416   75235.
 2 005930.KS 2022-01-05 78800 79000 76400 77400 25470640   73992.
 3 005930.KS 2022-01-06 76700 77600 76600 76900 12931954   73514.
 4 005930.KS 2022-01-07 78100 78400 77400 78300 15163757   74853.
 5 005930.KS 2022-01-10 78100 78100 77100 78000  9947422   74566.
 6 005930.KS 2022-01-11 78400 79000 78000 78900 13221123   75426.
 7 005930.KS 2022-01-12 79500 79600 78600 78900 11000502   75426.
 8 005930.KS 2022-01-13 79300 79300 77900 77900 13889401   74470.
 9 005930.KS 2022-01-14 77700 78100 77100 77300 10096725   73897.
10 005930.KS 2022-01-17 77600 77800 76900 77500  8785122   74088.
# ℹ 479 more rows
…
        stock_df <- bind_rows(stock_df, stock_price)
    }

    stock_df <- stock_df %>% 
        slice(-1)

    return(stock_df)
}

stock_data_raw <- naver_stock(ticker, 100)
stock_data_raw

# A tibble: 1,000 × 7
   날짜        종가 전일비   시가   고가  저가 거래량
   <date>     <dbl>  <dbl>  <dbl>  <dbl> <dbl>  <dbl>
 1 2024-03-08 95700    800  95600  96000 94800 343993
 2 2024-03-07 94900    200  94700  95300 93900 336931
 3 2024-03-06 94700   1300  93300  95400 93200 440556
 4 2024-03-05 93400    500  93500  94500 92900 400619
 5 2024-03-04 93900   1000  95100  95600 93800 627925
 6 2024-02-29 94900    400  95800  96200 94700 605548
 7 2024-02-28 95300    800  96100  96300 94000 715424
 8 2024-02-27 96100   2100  98600  98700 95500 469486
 9 2024-02-26 98200    300 100400 101400 98200 585114
10 2024-02-23 97900    100  98600  99200 97900 295948
# ℹ 990 more rows

start <- ymd('2022-01-01')
end <- ymd('2023-12-31')

stock_data <- stock_data_raw %>% 
    filter(날짜 > start & 날짜 < end)

stock_data

# A tibble: 491 × 7
   날짜         종가 전일비   시가   고가  저가  거래량
   <date>      <dbl>  <dbl>  <dbl>  <dbl> <dbl>   <dbl>
 1 2023-12-28 101800   1800  99900 101900 99500  751858
 2 2023-12-27 100000      0 100000 100000 98700  306136
 3 2023-12-26 100000    300 100600 100600 99200  313537
 4 2023-12-22  99700    200 100400 100400 99000  319969
 5 2023-12-21  99500    300  98500 100400 98500  543574
 6 2023-12-20  99200    900  99000  99500 98300  570657
 7 2023-12-19  98300   2200  95000  99300 94800 1234344
 8 2023-12-18  96100   1100  97400  97400 96100  537938
 9 2023-12-15  97200    400  96900  97400 96400  925632
10 2023-12-14  96800   1000  97100  97200 96000 1033739
# ℹ 481 more rows
…
Rows: 953 Columns: 8
── Column specification ────────────────────────────────────────────────────────
Delimiter: ","
chr (4): 종목코드, 종목명, 시장구분, 업종명
dbl (4): 종가, 대비, 등락률, 시가총액

ℹ Use `spec()` to retrieve the full column specification for this data.
ℹ Specify the column types or set `show_col_types = FALSE` to quiet this message.

print(down_sector_KS)

# A tibble: 953 × 8
   종목코드 종목명      시장구분 업종명     종가  대비 등락률      시가총액
   <chr>    <chr>       <chr>    <chr>     <dbl> <dbl>  <dbl>         <dbl>
 1 095570   AJ네트웍스  KOSPI    서비스업   4980    75   1.53  225358739820
 2 006840   AK홀딩스    KOSPI    기타금융  17100   100   0.59  226533293100
 3 027410   BGF         KOSPI    기타금융   3810    15   0.4   364680973710
 4 282330   BGF리테일   KOSPI    유통업   131300  2600   2.02 2269376857800
 5 138930   BNK금융지주 KOSPI    기타금융   7140    60   0.85 2299711447320
 6 001460   BYC         KOSPI    섬유의복 426500  1500   0.35  266398297500
 7 001465   BYC우       KOSPI    섬유의복 142600   900   0.64   30713901000
 8 001040   CJ          KOSPI    기타금융  94400  -800  -0.84 2754308611200
 9 079160   CJ CGV      KOSPI    서비스업   5780    80   1.4   707653890820
10 00104K   CJ4우(전환) KOSPI    기타금융  70300  -900  -1.26  297123793600
# ℹ 943 more rows
